[
	[[7.19994384, 35], [14.39988768, 54], [21.59983152, 66], [28.79977536, 75], [35.9997192, 82], [43.19966304, 86], [50.39960688, 89], [57.59955072, 87]], 
	[[7.19994384, 33], [14.39988768, 53], [21.59983152, 65], [28.79977536, 75], [35.9997192, 83], [43.19966304, 87], [50.39960688, 90], [57.59955072, 87]], 
	[[7.19994384, 44], [14.39988768, 69], [21.59983152, 81], [28.79977536, 86], [35.9997192, 87], [43.19966304, 81]], 
	[[7.19994384, 38], [14.39988768, 54], [21.59983152, 65], [28.79977536, 75], [35.9997192, 82], [43.19966304, 87], [50.39960688, 89], [57.59955072, 89]], 
	[[7.19994384, 31], [14.39988768, 53], [21.59983152, 65], [28.79977536, 74], [35.9997192, 81], [43.19966304, 86], [50.39960688, 88], [57.59955072, 86]], 
	[[5.759955072, 40], [11.51991014, 66], [17.27986522, 82], [23.03982029, 88], [25.91979782, 88]], 
	[[5.759955072, 40], [11.51991014, 66], [17.27986522, 82], [23.03982029, 88], [25.91979782, 88]], 
	[[5.759955072, 40], [11.51991014, 66], [17.27986522, 82], [23.03982029, 88], [25.91979782, 88]]
]