[
	[[0, 390], [7.19994384, 372], [14.39988768, 365], [21.59983152, 352], [28.79977536, 347], [35.9997192, 337], [43.19966304, 320], [50.39960688, 295], [57.59955072, 258]], 
	[[0, 387], [7.19994384, 380], [14.39988768, 358], [21.59983152, 350], [28.79977536, 342], [35.9997192, 335], [43.19966304, 320], [50.39960688, 295], [57.59955072, 250]], 
	[[0, 356], [7.19994384, 350], [14.39988768, 340], [21.59983152, 325], [28.79977536, 304], [35.9997192, 271], [43.19966304, 221]], 
	[[0, 390], [7.19994384, 378], [14.39988768, 370], [21.59983152, 355], [28.79977536, 348], [35.9997192, 331], [43.19966304, 320], [50.39960688, 297], [57.59955072, 270]], 
	[[0, 385], [7.19994384, 375], [14.39988768, 360], [21.59983152, 350], [28.79977536, 341], [35.9997192, 333], [43.19966304, 320], [50.39960688, 300], [57.59955072, 258]], 
	[[0, 400], [5.759955072, 363], [11.51991014, 342], [17.27986522, 322], [23.03982029, 285], [25.91979782, 255]], 
	[[0, 400], [5.759955072, 363], [11.51991014, 342], [17.27986522, 322], [23.03982029, 285], [25.91979782, 255]], 
	[[0, 400], [5.759955072, 363], [11.51991014, 342], [17.27986522, 322], [23.03982029, 285], [25.91979782, 255]]
]